{
  "development": {
    "username": "fasya",
    "password": "fasya",
    "database": "chapsev_development",
    "host": "localhost",
    "dialect": "postgres"
  },
  "test": {
    "username": "fasya",
    "password": "fasya",
    "database": "chapsev_test",
    "host": "localhost",
    "dialect": "postgres"
  },
  "production": {
    "username": "fasya",
    "password": "fasya",
    "database": "chapsev_production",
    "host": "localhost",
    "dialect": "postgres"
  }
}
